17 ica-reshaping – COMP/STAT112 Notebook
…
reaction time after getting 3 hours of sleep each day

19 Part b

It would have to be days in a column called days. # Part c pivot longer

19.1 Exercise 2: Pivot longer

20 Part a

# For cols, try 2 approaches: using - and starts_with
sleep_wide |>
  pivot_longer(cols = -Subject, names_to = "day", values_to = "reaction time", names_prefix = "day_")

# A tibble: 180 × 3
   Subject day   `reaction time`
     <int> <chr>           <dbl>
 1     308 0                250.
 2     308 1                259.
 3     308 2                251.
 4     308 3                321.
 5     308 4                357.
 6     308 5                415.
 7     308 6                382.
 8     308 7                290.
 9     308 8                431.
10     308 9                466.
# ℹ 170 more rows

sleep_wide |>
  pivot_longer(cols = starts_with("day_"), names_to = "day", values_to = "reaction time", names_prefix = "day_")

# A tibble: 180 × 3
   Subject day   `reaction time`
     <int> <chr>           <dbl>
 1     308 0                250.
 2     308 1                259.
 3     308 2                251.
 4     308 3                321.
 5     308 4                357.
 6     308 5                415.
 7     308 6                382.
 8     308 7                290.
 9     308 8                431.
10     308 9                466.
# ℹ 170 more rows
…
